…
### Exploring this dataset {-}

```r
wolves <- readxl::read_xlsx(
  here::here("data",
             "S1Table.xlsx")
) %>%
  as_tibble()

wolves
```

```
## # A tibble: 72 x 7
##    Species `Population est~ `Gross domestic~ `Compensation s~ `Land area (km2~
##    <chr>              <dbl>            <dbl>            <dbl>            <dbl>
##  1 WOLF                 225             4109                0            27398
##  2 WOLF                   5            49581                1            82445
##  3 WOLF                 650             4447                0            51187
##  4 WOLF                1000             7287                0           108489
##  5 WOLF                 200            13227                1            55974
##  6 WOLF                 230            16316                1            42388
##  7 WOLF                 155            46316                1           303815
##  8 WOLF                 100            42522                1           640427
##  9 WOLF                 150            41514                1           317021
## 10 WOLF                 700            22083                1           130647
## # ... with 62 more rows, and 2 more variables: `Forest area (km2)` <dbl>,
## #   `Country group` <chr>
```
…
download.file(json_file, destfile = "json.zip")
unzip("json.zip")
data <- fromJSON("panden-json.json")

df <- data$features %>% as_tibble
df
```

```
## # A tibble: 165,745 x 3
##    type  geometry$type $coordinates properties$ID $IMGEO_LOKAALID
##    <chr> <chr>         <list>       <chr>         <chr>          
##  1 Feat~ Polygon       <dbl[,15,2]~ 474760        G0518.FD0BE2D6~
##  2 Feat~ Polygon       <dbl[,5,2] ~ 60010510      G0518.14280CBF~
##  3 Feat~ Polygon       <dbl[,5,2] ~ 474886        G0518.FD0BE2D6~
##  4 Feat~ Polygon       <dbl[,5,2] ~ 475211        G0518.FD0BE2D6~
##  5 Feat~ Polygon       <dbl[,6,2] ~ 60010644      G0518.14280CBF~
##  6 Feat~ Polygon       <dbl[,5,2] ~ 475253        G0518.FD0BE2D6~
##  7 Feat~ Polygon       <dbl[,5,2] ~ 474941        G0518.FD0BE2D6~
##  8 Feat~ Polygon       <dbl[,5,2] ~ 475930        G0518.FD0BE2D6~
##  9 Feat~ Polygon       <dbl[,9,2] ~ 474965        G0518.FD0BE2D6~
## 10 Feat~ Polygon       <dbl[,6,2] ~ 475269        G0518.FD0BE2D6~
## # ... with 165,735 more rows, and 10 more variables:
## #   $IMGEO_OBJECTBEGINTIJD <chr>, $IMGEO_TIJDSTIPREGISTRATIE <chr>,
## #   $IMGEO_EINDREGISTRATIE <lgl>, $IMGEO_RELATIEVEHOOGTELIGGING <int>,
## #   $IMGEO_LVPUBLICATIEDATUM <lgl>, $IMGEO_BEHEERDER <chr>,
## #   $IMGEO_BRONHOUDER <chr>, $IMGEO_KLASSE <chr>, $IMGEO_INONDERZOEK <int>,
## #   $IMGEO_IDENTIFICATIEBAG <chr>
```
…
url_accidents <- read_html("https://www.klimongevallen.nl/ongevallen/")

accidents_page <- url_accidents %>%
  html_nodes("#ongevallentable") 

table <- accidents_page[[1]] %>%
  html_table() %>%
as_tibble()

table
```

```
## # A tibble: 272 x 7
##    Datum  Locatie  Activiteit Klimstijl `Omschrijving i~ Letsel `Vermoedelijke ~
##    <chr>  <chr>    <chr>      <chr>     <chr>            <chr>  <chr>           
##  1 2020-~ Boulder~ Boulderen  Boulderen Ongelukkige lan~ "Enke~ Met 1 been op d~
##  2 2020-~ Boulder~ Boulderen  Boulderen Gevallen/gespro~ "Blij~ Zeer ongelukkig~
##  3 2020-~ Boulder~ Boulderen  Boulderen Boulderaar viel~ "Gebr~ Vallen uit de b~
##  4 2020-~ Klimhal~ Sportklim~ Zekeren   Zekeringsappara~ "Geen~ Omhoog trekken ~
##  5 2020-~ Boulder~ Boulderen  Boulderen Schouder uit de~ "Scho~ Onvoldoende ins~
##  6 2020-~ Klimhal~ Sportklim~ Naklimmen Autobelay niet ~ "Geen~ Niet nagedacht ~
##  7 2020-~ Klimhal~ Boulderen  Boulderen Tijdens Corona-~ "Open~ Afsprong ging m~
##  8 2020-~ Klimhal~ Sportklim~ Naklimmen Een klimmer had~ "Geen~ Onwetendheid en~
##  9 2020-~ Klimhal~ Sportklim~ Naklimmen Diverse bijzond~ "Gelu~ Slechte control~
## 10 2020-~ Les Cal~ Sportklim~ Abseilen  Prusik bijna los "Geen~ Achtknoop ipv z~
## # ... with 262 more rows
```
…
stats <- table %>%
  #  dplyr::filter() %>%
  group_by(Activiteit, Letsel) %>%
  tally() %>%
  arrange(desc(n))

stats
```

```
## # A tibble: 192 x 3
## # Groups:   Activiteit [3]
##    Activiteit                  Letsel                                          n
##    <chr>                       <chr>                                       <int>
##  1 Sportklimmen                "Geen letsel."                                 72
##  2 Sportklimmen                "Overleden."                                    4
##  3 Sportklimmen                "Geen"                                          3
##  4 Sportklimmen                "Geen letsel"                                   3
##  5 Boulderen                   "Gebroken arm."                                 2
##  6 Sportklimmen                ""                                              2
##  7 Adventure klimmen/traditio~ "Breuk van de binnenknobbel van de rechter~     1
##  8 Adventure klimmen/traditio~ "Enkelbanden gescheurd, zowel binnen- als ~     1
##  9 Adventure klimmen/traditio~ "Gebrokken pols"                                1
## 10 Adventure klimmen/traditio~ "Geen letsel."                                  1
## # ... with 182 more rows
```
…
