…
<img src="ch16-lab5eda_files/figure-html/unnamed-chunk-7-1.png" width="480" />

What do you notice from this plot?

### Frequency calculation by 'hand'
You can compute this by hand by combining `dplyr::count()` and `ggplot2::cut_width()`:

```r
diamonds %>% 
  count(cut_width(carat, 0.05))
```

```
## # A tibble: 65 x 2
##    `cut_width(carat, 0.05)`     n
##    <fct>                    <int>
##  1 [0.175,0.225]               26
##  2 (0.225,0.275]             1245
##  3 (0.275,0.325]             7021
##  4 (0.325,0.375]             3732
##  5 (0.375,0.425]             4455
##  6 (0.425,0.475]             1087
##  7 (0.475,0.525]             3310
##  8 (0.525,0.575]             2752
##  9 (0.575,0.625]             1159
## 10 (0.625,0.675]              343
## # ... with 55 more rows
```
…
```r
## restore setting for tibble printing
options(tibble.print_max = 10, tibble.print_min = 10)
```

C) The data shows a `name` and a `row_id` variable. Are `name` and `row_id` equivalent? 


```r
cocktails %>% count(name)
```

```
## # A tibble: 989 x 2
##    name                          n
##    <chr>                     <int>
##  1 1626                          5
##  2 19th Century                  4
##  3 A. J.                         2
##  4 Absinthe Cocktail             4
##  5 Absinthe Drip Cocktail        2
##  6 Absinthe Special Cocktail     3
##  7 Academic Review               6
##  8 Acapulco                      5
##  9 Adam and Eve                  4
## 10 Adderly Cocktail              4
## # ... with 979 more rows
```

```r
cocktails %>% count(row_id)
```

```
## # A tibble: 989 x 2
##    row_id     n
##     <dbl> <int>
##  1      1     4
##  2      2     4
##  3      3     2
##  4      4     3
##  5      5     5
##  6      6     5
##  7      7     3
##  8      8     4
##  9      9     2
## 10     10     3
## # ... with 979 more rows
```
…
```r
# These 1-ingredient cocktails suggest that non-alcoholic ingredients
# are not included
cocktails %>%
  group_by(name) %>%
  filter(n() == 1)
```

```
## # A tibble: 31 x 6
## # Groups:   name [31]
##    name          category      row_id ingredient_numb~ ingredient        measure
##    <chr>         <chr>          <dbl>            <dbl> <chr>             <chr>  
##  1 Brandy and S~ Cocktail Cla~    149                1 Brandy            2 oz   
##  2 Vodka and To~ Vodka            156                1 Vodka             2 oz   
##  3 Vodka and Ap~ Vodka            162                1 Vodka             2 oz   
##  4 Limestone     Cocktail Cla~    164                1 Bourbon           1 1/2 ~
##  5 Bourbon On T~ Cocktail Cla~    170                1 Bourbon           2 oz   
##  6 Saronno Mist  Cocktail Cla~    183                1 Amaretto di Saro~ 1 1/2 ~
##  7 Mandarine Mi~ Cocktail Cla~    195                1 Mandarine Napole~ 1 1/2 ~
##  8 Hill Billy H~ Cocktail Cla~    216                1 Georgia Moon Cor~ 2 oz   
##  9 Cafe di Saro~ Cocktail Cla~    274                1 Amaretto di Saro~ 1 oz   
## 10 Bourbon High~ Whiskies         296                1 Bourbon whiskey   2 oz   
## # ... with 21 more rows
```

```r
cocktails %>%
  group_by(name) %>%
  filter(n() == 2)
```

```
## # A tibble: 236 x 6
## # Groups:   name [118]
##    name          category        row_id ingredient_numb~ ingredient      measure
##    <chr>         <chr>            <dbl>            <dbl> <chr>           <chr>  
##  1 Apple Pie     Cordials and L~      3                1 Apple schnapps  3 oz   
##  2 Apple Pie     Cordials and L~      3                2 Cinnamon schna~ 1 oz   
##  3 Caribbean Ch~ Cocktail Class~      9                1 Light Rum       1/2 oz 
##  4 Caribbean Ch~ Cocktail Class~      9                2 Creme de banana 1/2 oz 
##  5 Amaretto Sti~ Cordials and L~     17                1 Amaretto        1 1/2 ~
##  6 Amaretto Sti~ Cordials and L~     17                2 White creme de~ 3/4 oz 
##  7 Amaretto And~ Cordials and L~     44                1 Amaretto        1 1/2 ~
##  8 Amaretto And~ Cordials and L~     44                2 half-and-half   1 1/2 ~
##  9 Montreal Clu~ Cocktail Class~     50                1 Gin             1 1/2 ~
## 10 Montreal Clu~ Cocktail Class~     50                2 Anisette        1/2 oz 
## # ... with 226 more rows
```
…
