…
_If you are viewing this book in a browser you should see an interactive table. Take 5 minutes to study the data and 2 additional minutes to discuss what you see with one of your fellow course participants._

Try accessing the variable called `shipman_murders` by typing it's name in the Console. If all goes well this is what you see:


```
## # A tibble: 215 × 10
##    DateofDeath Name             Age PlaceofDeath Decision     yearOfDeath gender
##    <chr>       <chr>          <dbl> <chr>        <chr>              <dbl>  <dbl>
##  1 17-Mar-75   Eva Lyons         70 Own home     Unlawful ki…        1975      0
##  2 07-Aug-78   Sarah Hannah …    86 Own home     Unlawful ki…        1978      0
##  3 30-Aug-78   Mary Ellen Jo…    73 Own home     Unlawful ki…        1978      0
##  4 07-Dec-78   Harold Bramwe…    73 Own home     Unlawful ki…        1978      1
##  5 20-Dec-78   Annie Campbell    88 Own home     Unlawful ki…        1978      0
##  6 10-Aug-79   Alice Maude G…    76 Own home     Unlawful ki…        1979      0
##  7 28-Nov-79   Jack Leslie S…    77 Hospital     Unlawful ki…        1979      1
##  8 18-Apr-81   May Slater        84 Own home     Unlawful ki…        1981      0
##  9 26-Aug-81   Elizabeth Ash…    81 Own home     Unlawful ki…        1981      0
## 10 04-Jan-83   Percy Ward        90 Own home     Unlawful ki…        1983      1
## # … with 205 more rows, and 3 more variables: fractionalDeathYear <dbl>,
## #   ageBracket <chr>, gender2 <chr>
```
…
<img src="ch05-edacase_files/figure-html/unnamed-chunk-10-1.png" width="768" />

## Let's investigate the age distributions
Firstly, only those of the females and secondly all victims. The dashed blue line indicates the median age, the solid blue line indicates the mean. The graph shows a frequency distribution. 


```r
shipman_murders
```

```
## # A tibble: 215 × 12
##    dateofdeath name             age placeofdeath decision     yearofdeath gender
##    <chr>       <chr>          <dbl> <chr>        <chr>              <dbl>  <dbl>
##  1 17-Mar-75   evalyons          70 Own home     Unlawful ki…        1975      0
##  2 07-Aug-78   sarahhannahma…    86 Own home     Unlawful ki…        1978      0
##  3 30-Aug-78   maryellenjord…    73 Own home     Unlawful ki…        1978      0
##  4 07-Dec-78   haroldbramwell    73 Own home     Unlawful ki…        1978      1
##  5 20-Dec-78   anniecampbell     88 Own home     Unlawful ki…        1978      0
##  6 10-Aug-79   alicemaudegor…    76 Own home     Unlawful ki…        1979      0
##  7 28-Nov-79   jackleslieshe…    77 Hospital     Unlawful ki…        1979      1
##  8 18-Apr-81   mayslater         84 Own home     Unlawful ki…        1981      0
##  9 26-Aug-81   elizabethashw…    81 Own home     Unlawful ki…        1981      0
## 10 04-Jan-83   percyward         90 Own home     Unlawful ki…        1983      1
## # … with 205 more rows, and 5 more variables: fractionaldeathyear <dbl>,
## #   agebracket <chr>, gender2 <chr>, names <chr>, gender_recoded <fct>
```
…
## Example data 

```r
set.seed(1234)
normals <- rnorm(n = 1000, mean = 5, sd = 1.3)
normals_2 <- rnorm(1000, mean = 1.5, sd = 0.2)

df <- tibble(A = normals,
             B = normals_2)

df
```

```
## # A tibble: 1,000 × 2
##        A     B
##    <dbl> <dbl>
##  1  3.43  1.26
##  2  5.36  1.56
##  3  6.41  1.19
##  4  1.95  1.63
##  5  5.56  1.64
##  6  5.66  1.12
##  7  4.25  1.69
##  8  4.29  1.46
##  9  4.27  1.37
## 10  3.84  1.59
## # … with 990 more rows
```
…
<img src="ch09-lab2aviz_files/figure-html/unnamed-chunk-46-1.png" width="576" />

```r
pub_plot
```

```
## # A tibble: 10,545 × 10
##    country   year infant_mortality life_expectancy fertility population      gdp
##    <chr>    <int>            <dbl>           <dbl>     <dbl>      <dbl>    <dbl>
##  1 Albania   1960            115.             62.9      6.19    1636054 NA      
##  2 Algeria   1960            148.             47.5      7.65   11124892  1.38e10
##  3 Angola    1960            208              36.0      7.32    5270844 NA      
##  4 Antigua…  1960             NA              63.0      4.43      54681 NA      
##  5 Argenti…  1960             59.9            65.4      3.11   20619075  1.08e11
##  6 Armenia   1960             NA              66.9      4.55    1867396 NA      
##  7 Aruba     1960             NA              65.7      4.82      54208 NA      
##  8 Austral…  1960             20.3            70.9      3.45   10292328  9.67e10
##  9 Austria   1960             37.3            68.8      2.7     7065525  5.24e10
## 10 Azerbai…  1960             NA              61.3      5.57    3897889 NA      
## # … with 10,535 more rows, and 3 more variables: continent <fct>, region <fct>,
## #   group <chr>
```
…
```r
heights_data <- read_csv(file = here::here("data",
                                           "heights_outliers.csv"))

heights_data
```

```
## # A tibble: 1,192 × 6
##     earn height sex       ed   age race    
##    <dbl>  <dbl> <chr>  <dbl> <dbl> <chr>   
##  1 50000   74.4 male      16    45 white   
##  2 60000   65.5 female    16    58 white   
##  3 30000   63.6 female    16    29 white   
##  4 50000   63.1 female    16    91 other   
##  5 51000   63.4 female    17    39 white   
##  6  9000   64.4 female    15    26 white   
##  7 29000   61.7 female    12    49 white   
##  8 32000   72.7 male      17    46 white   
##  9  2000   72.0 male      15    21 hispanic
## 10 27000   72.2 male      12    26 white   
## # … with 1,182 more rows
```
…
### Inspect data {-}

```r
pertussis_data
```

```
## # A tibble: 54 × 41
##     ...1 ...2     `1980` `1981` `1982` `1983` `1984` `1985` `1986` `1987` `1988`
##    <dbl> <chr>    <lgl>  <lgl>  <lgl>  <lgl>  <lgl>  <lgl>  <lgl>  <lgl>  <lgl> 
##  1     2 Albania  NA     NA     NA     NA     NA     NA     NA     NA     NA    
##  2     5 Andorra  NA     NA     NA     NA     NA     NA     NA     NA     NA    
##  3    10 Armenia  NA     NA     NA     NA     NA     NA     NA     NA     NA    
##  4    13 Austria  NA     NA     NA     NA     NA     NA     NA     NA     NA    
##  5    14 Azerbai… NA     NA     NA     NA     NA     NA     NA     NA     NA    
##  6    19 Belarus  NA     NA     NA     NA     NA     NA     NA     NA     NA    
##  7    20 Belgium  NA     NA     NA     NA     NA     NA     NA     NA     NA    
##  8    26 Bosnia … NA     NA     NA     NA     NA     NA     NA     NA     NA    
##  9    31 Bulgaria NA     NA     NA     NA     NA     NA     NA     NA     NA    
## 10    51 Croatia  NA     NA     NA     NA     NA     NA     NA     NA     NA    
## # … with 44 more rows, and 30 more variables: 1989 <lgl>, 1990 <dbl>,
## #   1991 <dbl>, 1992 <dbl>, 1993 <dbl>, 1994 <dbl>, 1995 <dbl>, 1996 <dbl>,
## #   1997 <dbl>, 1998 <dbl>, 1999 <dbl>, 2000 <dbl>, 2001 <dbl>, 2002 <dbl>,
## #   2003 <dbl>, 2004 <dbl>, 2005 <dbl>, 2006 <dbl>, 2007 <dbl>, 2008 <dbl>,
## #   2009 <dbl>, 2010 <dbl>, 2011 <dbl>, 2012 <dbl>, 2013 <dbl>, 2014 <lgl>,
## #   2015 <lgl>, 2016 <lgl>, 2017 <lgl>, 2018 <lgl>
```
…
- The first few lines of the file have comments indicated with `#`
- There are 53 countries in the dataset
- There is no data for the years 1980-1989 and 2014-2018
- The data is not in `tidy` format
- Missing values are indicated with __empty cells__
- It is not a good idea to have a column name starting with a digit; why?


```r
pertussis_data
```

```
## # A tibble: 54 × 41
##     ...1 ...2     `1980` `1981` `1982` `1983` `1984` `1985` `1986` `1987` `1988`
##    <dbl> <chr>    <lgl>  <lgl>  <lgl>  <lgl>  <lgl>  <lgl>  <lgl>  <lgl>  <lgl> 
##  1     2 Albania  NA     NA     NA     NA     NA     NA     NA     NA     NA    
##  2     5 Andorra  NA     NA     NA     NA     NA     NA     NA     NA     NA    
##  3    10 Armenia  NA     NA     NA     NA     NA     NA     NA     NA     NA    
##  4    13 Austria  NA     NA     NA     NA     NA     NA     NA     NA     NA    
##  5    14 Azerbai… NA     NA     NA     NA     NA     NA     NA     NA     NA    
##  6    19 Belarus  NA     NA     NA     NA     NA     NA     NA     NA     NA    
##  7    20 Belgium  NA     NA     NA     NA     NA     NA     NA     NA     NA    
##  8    26 Bosnia … NA     NA     NA     NA     NA     NA     NA     NA     NA    
##  9    31 Bulgaria NA     NA     NA     NA     NA     NA     NA     NA     NA    
## 10    51 Croatia  NA     NA     NA     NA     NA     NA     NA     NA     NA    
## # … with 44 more rows, and 30 more variables: 1989 <lgl>, 1990 <dbl>,
## #   1991 <dbl>, 1992 <dbl>, 1993 <dbl>, 1994 <dbl>, 1995 <dbl>, 1996 <dbl>,
## #   1997 <dbl>, 1998 <dbl>, 1999 <dbl>, 2000 <dbl>, 2001 <dbl>, 2002 <dbl>,
## #   2003 <dbl>, 2004 <dbl>, 2005 <dbl>, 2006 <dbl>, 2007 <dbl>, 2008 <dbl>,
## #   2009 <dbl>, 2010 <dbl>, 2011 <dbl>, 2012 <dbl>, 2013 <dbl>, 2014 <lgl>,
## #   2015 <lgl>, 2016 <lgl>, 2017 <lgl>, 2018 <lgl>
```
…
``` ` ``` 


```r
pertussis_data_tidy <- pertussis_data %>% 
  gather(`1980`:`2018`, key = "year", 
                        value = "annual_pertussis_cases") %>%
  mutate(annual_pertussis_cases = as.numeric(annual_pertussis_cases
                                             ))
pertussis_data_tidy
```

```
## # A tibble: 2,106 × 4
##     ...1 ...2                   year  annual_pertussis_cases
##    <dbl> <chr>                  <chr>                  <dbl>
##  1     2 Albania                1980                      NA
##  2     5 Andorra                1980                      NA
##  3    10 Armenia                1980                      NA
##  4    13 Austria                1980                      NA
##  5    14 Azerbaijan             1980                      NA
##  6    19 Belarus                1980                      NA
##  7    20 Belgium                1980                      NA
##  8    26 Bosnia and Herzegovina 1980                      NA
##  9    31 Bulgaria               1980                      NA
## 10    51 Croatia                1980                      NA
## # … with 2,096 more rows
```
…
```r
# pertussis_data_tidy
# gapminder
gapminder$year <- as.character(gapminder$year)
gapminder$country <- as.character(gapminder$country)
pertussis_data_tidy$country <- as.character(pertussis_data_tidy$country)

join <-   dplyr::inner_join (gapminder, pertussis_data_tidy, by = c("country", "year")) %>%
  na.omit()
join
```

```
## # A tibble: 861 × 10
##    country   year  infant_mortality life_expectancy fertility population     gdp
##    <chr>     <chr>            <dbl>           <dbl>     <dbl>      <dbl>   <dbl>
##  1 Albania   1990              35.1            73.3      2.97    3281453 3.22e 9
##  2 Armenia   1990              42.5            70.1      2.54    3544695 2.82e 9
##  3 Austria   1990               8              75.7      1.46    7706571 1.47e11
##  4 Azerbaij… 1990              75.5            65.6      2.97    7216503 8.95e 9
##  5 Belarus   1990              13.5            70.5      1.89   10231983 1.44e10
##  6 Belgium   1990               8.3            76        1.58    9978241 1.87e11
##  7 Bulgaria  1990              18.4            71.4      1.77    8821111 1.46e10
##  8 Croatia   1990              11.2            72.6      1.67    4776374 2.51e10
##  9 Cyprus    1990               9.9            76.8      2.41     766611 6.19e 9
## 10 Czech Re… 1990              12.7            71.8      1.82   10323701 5.63e10
## # … with 851 more rows, and 3 more variables: continent <fct>, region <fct>,
## #   annual_pertussis_cases <dbl>
```
…
```r
#join$year %>% as_factor %>% levels()
#join$country %>% as_factor() %>% levels()

booleans_demo <- join %>%
  dplyr::filter(country == "Netherlands" |
         country == "Belarus" &
         year == "1990" |                 ## | is OR in R
         year == "1995" &                 ## & is AND in R   
         !annual_pertussis_cases < 100)   ## ! is NOT in R (not smaller                                                             than 100)
booleans_demo
```

```
## # A tibble: 40 × 10
##    country   year  infant_mortality life_expectancy fertility population     gdp
##    <chr>     <chr>            <dbl>           <dbl>     <dbl>      <dbl>   <dbl>
##  1 Belarus   1990              13.5            70.5      1.89   10231983 1.44e10
##  2 Netherla… 1990               6.8            77        1.62   14915139 2.82e11
##  3 Netherla… 1991               6.5            77.2      1.61   15019184 2.89e11
##  4 Netherla… 1992               6.3            77.3      1.59   15128288 2.94e11
##  5 Netherla… 1993               6.1            77.2      1.57   15239262 2.97e11
##  6 Netherla… 1994               5.8            77.5      1.57   15347792 3.06e11
##  7 Albania   1995              29.1            73.7      2.72    3106727 2.83e 9
##  8 Belarus   1995              14.4            68.2      1.47   10159731 9.38e 9
##  9 Bosnia a… 1995              12.3            67        1.53    3879278 1.62e 9
## 10 Croatia   1995               8.7            73        1.52    4616762 1.82e10
## # … with 30 more rows, and 3 more variables: continent <fct>, region <fct>,
## #   annual_pertussis_cases <dbl>
```
…
 - Sort(rank) your data ascending or descending  
 - `{dplyr}` verb to use is `arrange()`, 
 - In conjunction with the `desc()` function if you want to rank in descending order 
 - `arrange()` takes one or multiple variable names for which you want to sort

#### Example `arrange()` {-}

```r
## ascending
join_filtered %>%
  arrange(annual_pertussis_cases)
```

```
## # A tibble: 61 × 3
##    year  country annual_pertussis_cases
##    <chr> <chr>                    <dbl>
##  1 2002  Norway                    3170
##  2 1992  Ukraine                   3363
##  3 1997  Italy                     3364
##  4 1994  Ukraine                   3374
##  5 2000  Norway                    3417
##  6 2010  Norway                    3565
##  7 1996  Spain                     3577
##  8 1998  Italy                     3632
##  9 1995  Spain                     3741
## 10 1999  Italy                     3797
## # … with 51 more rows
```

```r
## descending
join_filtered %>%
  arrange(desc(annual_pertussis_cases))
```

```
## # A tibble: 61 × 3
##    year  country     annual_pertussis_cases
##    <chr> <chr>                        <dbl>
##  1 1994  Switzerland                  26000
##  2 1995  Switzerland                  20000
##  3 1991  Italy                        19356
##  4 1990  Italy                        16992
##  5 1995  Italy                        14359
##  6 1994  Italy                        13360
##  7 1994  Sweden                       13187
##  8 1997  Switzerland                  13000
##  9 1998  Switzerland                  13000
## 10 1993  Sweden                       11542
## # … with 51 more rows
```
…
```r
join_new <- join %>% 
  dplyr::mutate(incidence = 
                  (annual_pertussis_cases/population)*100000) %>%
  dplyr::select(incidence, 
         annual_pertussis_cases, 
         country, year) %>%
  arrange(desc(incidence))
join_new 
```

```
## # A tibble: 861 × 4
##    incidence annual_pertussis_cases country     year 
##        <dbl>                  <dbl> <chr>       <chr>
##  1      374.                  26000 Switzerland 1994 
##  2      285.                  20000 Switzerland 1995 
##  3      183.                  13000 Switzerland 1997 
##  4      183.                  13000 Switzerland 1998 
##  5      169.                   7737 Norway      2004 
##  6      163.                  11500 Switzerland 1996 
##  7      154.                  11000 Switzerland 1999 
##  8      150.                  13187 Sweden      1994 
##  9      141.                   6587 Norway      2006 
## 10      133.                  11432 Sweden      1991 
## # … with 851 more rows
```
…
### Exploring this dataset {-}

```r
wolves <- readxl::read_xlsx(
  here::here("data",
             "S1Table.xlsx")
) %>%
  as_tibble()

wolves
```

```
## # A tibble: 72 × 7
##    Species `Population esti… `Gross domestic … `Compensation s… `Land area (km2…
##    <chr>               <dbl>             <dbl>            <dbl>            <dbl>
##  1 WOLF                  225              4109                0            27398
##  2 WOLF                    5             49581                1            82445
##  3 WOLF                  650              4447                0            51187
##  4 WOLF                 1000              7287                0           108489
##  5 WOLF                  200             13227                1            55974
##  6 WOLF                  230             16316                1            42388
##  7 WOLF                  155             46316                1           303815
##  8 WOLF                  100             42522                1           640427
##  9 WOLF                  150             41514                1           317021
## 10 WOLF                  700             22083                1           130647
## # … with 62 more rows, and 2 more variables: Forest area (km2) <dbl>,
## #   Country group <chr>
```
…
url_accidents <- read_html("https://www.klimongevallen.nl/ongevallen/")

accidents_page <- url_accidents %>%
  html_nodes("#ongevallentable") 

table <- accidents_page[[1]] %>%
  html_table() %>%
as_tibble()

table
```

```
## # A tibble: 293 × 7
##    Datum      Locatie Activiteit Klimstijl `Omschrijving i… Letsel `Vermoedelijke …
##    <chr>      <chr>   <chr>      <chr>     <chr>            <chr>  <chr>           
##  1 2021-08-12 Tautav… Sportklim… Voorklim… Ongezekerd voor… ""     Onderschatting …
##  2 2021-08-01 Boulde… Boulderen  Boulderen Arm gebroken na… "Arm … Verkeerd terech…
##  3 2021-07-29 Klimha… Sportklim… Naklimmen Niet vastgemaak… "Beid… Niet vastgemaak…
##  4 2021-07-28 Val d'… Sportklim… Voorklim… Setje hangt zic… "Geen" Tot grote verba…
##  5 2021-06-21 Fourne… Sportklim… Voorklim… Voorklimval doo… "Meer… Foutieve inscha…
##  6 2021-06-14 Klimha… Sportklim… Naklimmen Kleine brandwon… "Klei… Te weinig inzic…
##  7 2021-06-09 Boulde… Boulderen  Boulderen Bij dyno val op… "Elle… Dyno wel gehaal…
##  8 2021-03-30 Klimha… Sportklim… Naklimmen Toprope examen,… "Geen… Combi gewichtsv…
##  9 2020-12-13 Klimha… Sportklim… Naklimmen Vergeten in te … "Pols… Vergeten in te …
## 10 2020-12-08 Boulde… Boulderen  Boulderen Ongelukkige lan… "Heef… Voet bleef hang…
## # … with 283 more rows
```
…
stats <- table %>%
  #  dplyr::filter() %>%
  group_by(Activiteit, Letsel) %>%
  tally() %>%
  arrange(desc(n))

stats
```

```
## # A tibble: 208 × 3
## # Groups:   Activiteit [3]
##    Activiteit                             Letsel                               n
##    <chr>                                  <chr>                            <int>
##  1 Sportklimmen                           "Geen letsel."                      73
##  2 Sportklimmen                           "Geen"                               4
##  3 Sportklimmen                           "Geen letsel"                        4
##  4 Sportklimmen                           "Overleden."                         4
##  5 Sportklimmen                           ""                                   3
##  6 Boulderen                              "Gebroken arm."                      2
##  7 Sportklimmen                           "Verstuikte enkel"                   2
##  8 Adventure klimmen/traditioneel klimmen "Breuk van de binnenknobbel van…     1
##  9 Adventure klimmen/traditioneel klimmen "Enkelbanden gescheurd, zowel b…     1
## 10 Adventure klimmen/traditioneel klimmen "Gebrokken pols"                     1
## # … with 198 more rows
```
…
